{
  "$schema": "http://json.schemastore.org/launchsettings.json",
  "iisSettings": {
    "windowsAuthentication": false,
    "anonymousAuthentication": true,
    "iisExpress": {
      "applicationUrl": "http://localhost:54348",
      "sslPort": 44378
    }
  },
  "profiles": {
    "IIS Express": {
      "commandName": "IISExpress",
      "launchBrowser": true,
      "launchUrl": "swagger/index.html",
      "environmentVariables": {
        "ASPNETCORE_ENVIRONMENT": "Development",
        "DatabaseIpAddress": "127.0.0.1",
        "DatabaseName": "Recipes",
        "DatabaseUser": "sa",
        "DatabasePassword": "yourStrong(!)Password"
      },
    },
    "RecipesApiDev": {
      "commandName": "Project",
      "launchUrl": "swagger/index.html",
      "environmentVariables": {
        "ASPNETCORE_ENVIRONMENT": "Development",
        "DatabaseIpAddress": "127.0.0.1",
        "DatabaseName": "Recipes",
        "DatabaseUser": "sa",
        "DatabasePassword": "yourStrong(!)Password"
      },
      "applicationUrl": "https://localhost:5003;http://localhost:5002"
    },
    "Docker": {
      "commandName": "Docker",
      "launchUrl": "{Scheme}://{ServiceHost}:{ServicePort}/swagger/index.html",
      "publishAllPorts": true,
      "useSSL": true,
      "httpPort": 5002,
      "sslPort": 5003
    }
  }
}